1000, 9, 1000
1000, 3, 1000
2000, 8, 2000
2000, 4, 2000
4000, 18, 4000
4000, 18, 4000
8000, 74, 8000
8000, 74, 8000
16000, 299, 16000
16000, 299, 16000
32000, 1202, 32000
32000, 1197, 32000
64000, 4763, 64000
64000, 4776, 64000
128000, 19137, 128000
128000, 19162, 128000
256000, 76216, 256000
256000, 76227, 256000
