STARTTIMING: Main
|	STARTTIMING: Loop
|	|	STARTTIMING: Bubble
|	|	STOPTIMING: Bubble 9587ms
|	|	STARTTIMING: Bubble
|	|	STOPTIMING: Bubble 9530ms
|	|	STARTTIMING: Bubble
|	|	STOPTIMING: Bubble 8797ms
|	|	STARTTIMING: Bubble
|	|	STOPTIMING: Bubble 8748ms
|	|	STARTTIMING: Bubble
|	|	STOPTIMING: Bubble 8750ms
|	|	STARTTIMING: Bubble
|	|	STOPTIMING: Bubble 8807ms
|	|	STARTTIMING: Bubble
|	|	STOPTIMING: Bubble 8717ms
|	|	STARTTIMING: Bubble
|	|	STOPTIMING: Bubble 8707ms
|	|	STARTTIMING: Bubble
|	|	STOPTIMING: Bubble 8757ms
|	|	STARTTIMING: Bubble
|	|	STOPTIMING: Bubble 8709ms
|	STOPTIMING: Loop 89128ms
STOPTIMING: Main 89128ms
TOTAL TIME: 89128ms
